<?xml version="1.0" encoding="UTF-8"?>
<svg width="25px" height="25px" viewBox="0 0 25 25" version="1.1" xmlns="http://www.w3.org/2000/svg" xmlns:xlink="http://www.w3.org/1999/xlink">
    <!-- Generator: Sketch 51.1 (57501) - http://www.bohemiancoding.com/sketch -->
    <title>xhdpi/Group 67</title>
    <desc>Created with Sketch.</desc>
    <defs></defs>
    <g id="Page-1" stroke="none" stroke-width="1" fill="none" fill-rule="evenodd">
        <g id="Group-70" transform="translate(1.000000, 1.000000)">
            <g id="Group-67">
                <g id="Group-23" transform="translate(1.000000, 0.000000)" stroke="#C03A10" stroke-width="3">
                    <g id="Group-10" transform="translate(0.000000, 0.666667)">
                        <circle id="Oval-Copy" cx="10.5" cy="10.5" r="10.5"></circle>
                    </g>
                </g>
                <g id="Group-46" transform="translate(11.500000, 11.500000) rotate(45.000000) translate(-11.500000, -11.500000) translate(4.000000, 4.000000)" fill="#C03A10">
                    <g id="Group-45">
                        <g id="Add">
                            <path d="M14.1230769,7.07692308 L7.96923077,7.07692308 L7.96923077,0.923076923 C7.96923077,0.604451106 7.71093351,0.346153846 7.39230769,0.346153846 C7.07368188,0.346153846 6.81538462,0.604451106 6.81538462,0.923076923 L6.81538462,7.07692308 L0.661538462,7.07692308 C0.342912644,7.07692308 0.0846153846,7.33522034 0.0846153846,7.65384615 C0.0846153846,7.97247197 0.342912644,8.23076923 0.661538462,8.23076923 L6.81538462,8.23076923 L6.81538462,14.3846154 C6.81538462,14.7032412 7.07368188,14.9615385 7.39230769,14.9615385 C7.71093351,14.9615385 7.96923077,14.7032412 7.96923077,14.3846154 L7.96923077,8.23076923 L14.1230769,8.23076923 C14.4417027,8.23076923 14.7,7.97247197 14.7,7.65384615 C14.7,7.33522034 14.4417027,7.07692308 14.1230769,7.07692308 L14.1230769,7.07692308 Z" id="Shape"></path>
                        </g>
                    </g>
                </g>
            </g>
        </g>
    </g>
</svg>